%YAML 1.1
%TAG !u! tag:unity3d.com,2011:
--- !u!114 &11400000
MonoBehaviour:
  m_ObjectHideFlags: 0
  m_CorrespondingSourceObject: {fileID: 0}
  m_PrefabInstance: {fileID: 0}
  m_PrefabAsset: {fileID: 0}
  m_GameObject: {fileID: 0}
  m_Enabled: 1
  m_EditorHideFlags: 0
  m_Script: {fileID: 11500000, guid: dfd86ef47fc7e0c47a9563bde8758287, type: 3}
  m_Name: SoundConfigs
  m_EditorClassIdentifier: 
  sounds:
  - {fileID: 8300000, guid: ef14aad01e75cef46b42adb0687c32b5, type: 3}
  - {fileID: 8300000, guid: 7f1236d0b2932344abddfcb3946160fb, type: 3}
  - {fileID: 8300000, guid: bc886b3c518031c4fa068067c2977663, type: 3}
  - {fileID: 8300000, guid: 7e590348bd3c5f04bb65ae526491ce32, type: 3}
  - {fileID: 8300000, guid: 1060b9c4a375f5a4793d4e7ad73beaf2, type: 3}
  - {fileID: 8300000, guid: be860d2de101b1240a94bc7594b67bfc, type: 3}
  - {fileID: 8300000, guid: 8f87ae870660ad74d80021050ae99a0d, type: 3}
  - {fileID: 8300000, guid: 079f344fc94df14438c54496786b5639, type: 3}
  - {fileID: 8300000, guid: 83b401d63ca143240ad2b8378096b6fc, type: 3}
  - {fileID: 8300000, guid: c803d3a80d54d3c439bb5d57dab800cc, type: 3}
  - {fileID: 8300000, guid: 17dd87a3cb2416442b93008b586d8ce3, type: 3}
  - {fileID: 8300000, guid: 1245c97dd2c04764aac61ca5ee39955e, type: 3}
  - {fileID: 8300000, guid: bd705e2df7057264fbad69f42a50cd55, type: 3}
  - {fileID: 8300000, guid: d0d5f432842071248b34e4412e253a52, type: 3}
  - {fileID: 8300000, guid: 601781a94932e114592df952c1db7f12, type: 3}
  - {fileID: 8300000, guid: 5a5ad862f95b01e468009af4cd55e405, type: 3}
  - {fileID: 8300000, guid: a9270817dd3979d42993e4225c73409b, type: 3}
  - {fileID: 8300000, guid: 8e5f4e2c617cc744ca20b12af03610bd, type: 3}
  - {fileID: 8300000, guid: cf585e1b3ac091c4ea315695a40f2cef, type: 3}
  - {fileID: 8300000, guid: afc5f4907f01152408fda515fcc1432a, type: 3}
  - {fileID: 8300000, guid: 4f65324b4c0102a4d8cd0d292e151c2c, type: 3}
  - {fileID: 8300000, guid: 97aef0af5506ae144aaa2b56707cd460, type: 3}
  - {fileID: 8300000, guid: c8df19b8178f4ea4681486d30ba0c182, type: 3}
  - {fileID: 8300000, guid: c85ad18dbda83ca47b05e90702671d73, type: 3}
  - {fileID: 8300000, guid: a2a4535cf1d18ac43ad582e52a9e6481, type: 3}
  - {fileID: 8300000, guid: 9aaf604c4e6b74542928beab84c28066, type: 3}
  - {fileID: 8300000, guid: e39f77040990d7b458610e1f6935076d, type: 3}
  - {fileID: 8300000, guid: ceef125cbf6f542009e6292bf7af8af3, type: 3}
  - {fileID: 8300000, guid: e085e9a72572140deb71d91695473806, type: 3}
  - {fileID: 8300000, guid: 08ff505e484c24abbad71e42ee8f987c, type: 3}
  - {fileID: 8300000, guid: 5983d045de5e9477e84b486f224dd628, type: 3}
  - {fileID: 8300000, guid: a17eca02cee1e46239268373635e2e7e, type: 3}
  - {fileID: 8300000, guid: e3a3730d548a64da9b2a14a48a84938c, type: 3}
